[start]
timestamp=06/25/19 04:39:39
Acceleration Element=0
DBIAS=-28.437905
DLDAH=49.999572
DLDR=-49.998195
DLDS=349.99892
L1=1475.7841
L2=-218.29465
L3=323.31976
L4=-294.27494
MCP=2419.9856

[finish]
timestamp=06/25/19 04:45:22
Acceleration Element=0
DBIAS=-28.437905
DLDAH=49.999572
DLDR=-49.998195
DLDS=349.99892
L1=1475.7841
L2=-218.29465
L3=323.31976
L4=-294.27494
MCP=2419.9856

